{
  "project_info": {
    "project_number": "732316651437",
    "project_id": "projeto-teste-b7946",
    "storage_bucket": "projeto-teste-b7946.appspot.com"
  },
  "client": [
    {
      "client_info": {
        "mobilesdk_app_id": "1:732316651437:android:3c913402a5116bf8949b24",
        "android_client_info": {
          "package_name": "com.igor.mvternos"
        }
      },
      "oauth_client": [
        {
          "client_id": "732316651437-smt4j42fsut1v34t1alcof8irh9fc55v.apps.googleusercontent.com",
          "client_type": 1,
          "android_info": {
            "package_name": "com.igor.mvternos",
            "certificate_hash": "08b380b4807ff691266a44f1b9085fb0ed8e3b81"
          }
        },
        {
          "client_id": "732316651437-j6i2upuhaladhd24vn9dchs1119oq7dn.apps.googleusercontent.com",
          "client_type": 3
        }
      ],
      "api_key": [
        {
          "current_key": "AIzaSyByflOszD4QdXTzFTa4E4DvE2VYdsZf50w"
        }
      ],
      "services": {
        "appinvite_service": {
          "other_platform_oauth_client": [
            {
              "client_id": "732316651437-j6i2upuhaladhd24vn9dchs1119oq7dn.apps.googleusercontent.com",
              "client_type": 3
            }
          ]
        }
      }
    }
  ],
  "configuration_version": "1"
}